{"name":"test002","id":"in.reqres.reqresinfo.ReqresCURDTestWithSteps:test002","testCaseName":"in.reqres.reqresinfo.ReqresCURDTestWithSteps","testSteps":[{"number":1,"description":"Getting single User information with name: Pari80901","duration":1917,"startTime":"2022-06-07T12:26:47.492+01:00[Europe/London]","result":"SUCCESS","precondition":false,"children":[{"number":2,"description":"GET https://reqres.in/api/users\r\r","duration":0,"startTime":"2022-06-07T12:26:47.808+01:00[Europe/London]","result":"SUCCESS","restQuery":{"method":"GET","path":"https://reqres.in/api/users\r\r","content":"\r","contentType":"null","requestHeaders":"Accept\u003d*/*\r\r","requestCookies":"\r\r","responseHeaders":"Date: Tue, 07 Jun 2022 11:26:47 GMT\nContent-Type: application/json; charset\u003dutf-8\nTransfer-Encoding: chunked\nConnection: keep-alive\nX-Powered-By: Express\nAccess-Control-Allow-Origin: *\nEtag: W/\"3e4-2RLXvr5wTg9YQ6aH95CkYoFNuO8\"\nVia: 1.1 vegur\nCache-Control: max-age\u003d14400\nCF-Cache-Status: HIT\nAge: 3477\nExpect-CT: max-age\u003d604800, report-uri\u003d\"https://report-uri.cloudflare.com/cdn-cgi/beacon/expect-ct\"\nReport-To: {\"endpoints\":[{\"url\":\"https:\\/\\/a.nel.cloudflare.com\\/report\\/v3?s\u003dgnnXXoJdce1hvImKet4uuFnhvHiybaggDVBFeWWAEYr9Ti3DNmrSR20j48K34hSSIYV8ZbhJnVrV8SnLhoAMBhJNWvSmHRIBbehdDoKPKi%2B4GOjDJnsE7hHobtY%3D\"}],\"group\":\"cf-nel\",\"max_age\":604800}\nNEL: {\"success_fraction\":0,\"report_to\":\"cf-nel\",\"max_age\":604800}\nVary: Accept-Encoding\nServer: cloudflare\nCF-RAY: 717908ed398a770d-LHR\nContent-Encoding: gzip\nalt-svc: h3\u003d\":443\"; ma\u003d86400, h3-29\u003d\":443\"; ma\u003d86400\r","responseCookies":"\r","responseBody":"{\n    \"page\": 1,\n    \"per_page\": 6,\n    \"total\": 12,\n    \"total_pages\": 2,\n    \"data\": [\n        {\n            \"id\": 1,\n            \"email\": \"george.bluth@reqres.in\",\n            \"first_name\": \"George\",\n            \"last_name\": \"Bluth\",\n            \"avatar\": \"https://reqres.in/img/faces/1-image.jpg\"\n        },\n        {\n            \"id\": 2,\n            \"email\": \"janet.weaver@reqres.in\",\n            \"first_name\": \"Janet\",\n            \"last_name\": \"Weaver\",\n            \"avatar\": \"https://reqres.in/img/faces/2-image.jpg\"\n        },\n        {\n            \"id\": 3,\n            \"email\": \"emma.wong@reqres.in\",\n            \"first_name\": \"Emma\",\n            \"last_name\": \"Wong\",\n            \"avatar\": \"https://reqres.in/img/faces/3-image.jpg\"\n        },\n        {\n            \"id\": 4,\n            \"email\": \"eve.holt@reqres.in\",\n            \"first_name\": \"Eve\",\n            \"last_name\": \"Holt\",\n            \"avatar\": \"https://reqres.in/img/faces/4-image.jpg\"\n        },\n        {\n            \"id\": 5,\n            \"email\": \"charles.morris@reqres.in\",\n            \"first_name\": \"Charles\",\n            \"last_name\": \"Morris\",\n            \"avatar\": \"https://reqres.in/img/faces/5-image.jpg\"\n        },\n        {\n            \"id\": 6,\n            \"email\": \"tracey.ramos@reqres.in\",\n            \"first_name\": \"Tracey\",\n            \"last_name\": \"Ramos\",\n            \"avatar\": \"https://reqres.in/img/faces/6-image.jpg\"\n        }\n    ],\n    \"support\": {\n        \"url\": \"https://reqres.in/#support-heading\",\n        \"text\": \"To keep ReqRes free, contributions towards server costs are appreciated!\"\n    }\n}","statusCode":200},"precondition":false}]}],"userStory":{"id":"in.reqres.reqresinfo.ReqresCURDTestWithSteps","storyName":"Reqres CURD test with steps","storyClassName":"in.reqres.reqresinfo.ReqresCURDTestWithSteps","path":"in.reqres.reqresinfo","type":"story"},"featureTag":{"name":"Reqresinfo/Reqres CURD test with steps","type":"story"},"title":"Verify if the service was added","tags":[{"name":"Reqresinfo/Reqres CURD test with steps","type":"story"}],"startTime":"2022-06-07T12:26:47.484+01:00[Europe/London]","duration":1936,"projectKey":"","manual":false,"testSource":"JUnit","result":"SUCCESS"}